-------------------------------------------------------------------------------
Test set: mn.birthday_greetings.tests.RunCukesTest
-------------------------------------------------------------------------------
Tests run: 12, Failures: 0, Errors: 0, Skipped: 0, Time elapsed: 0.739 sec
